Chapter 9 Bioinformatics | Introduction to bioinformatics
…
S12
Kevin
2019-03-02
DRUG
5
4

We have seen a much more complex experimental design, involving many
more samples with the clinical1 data.

## # A tibble: 516 × 15
##    patientID    tumor_tissue_site gender age_at_diagnosis vital_status
##    <chr>        <chr>             <chr>             <int>        <int>
##  1 TCGA-05-4249 lung              male              24532            0
##  2 TCGA-05-4382 lung              male              24868            0
##  3 TCGA-05-4384 lung              male              24411            0
##  4 TCGA-05-4389 lung              male              25660            0
##  5 TCGA-05-4390 lung              female            21430            0
##  6 TCGA-05-4395 lung              male              27971            1
##  7 TCGA-05-4396 lung              male              28094            1
##  8 TCGA-05-4398 lung              female            17471            0
##  9 TCGA-05-4402 lung              female            20819            1
## 10 TCGA-05-4403 lung              male              27881            0
## # ℹ 506 more rows
## # ℹ 10 more variables: days_to_death <int>, days_to_last_followup <int>,
## #   pathologic_stage <chr>, pathology_T_stage <chr>, pathology_N_stage <chr>,
## #   pathology_M_stage <chr>, smoking_history <chr>,
## #   number_pack_years_smoked <dbl>, year_of_tobacco_smoking_onset <int>,
## #   stopped_smoking_year <int>
…
