Chapter 7 Joining tables | Introduction to bioinformatics
…
library("rWSBIM1207")
data(jdf)

The example data is composed of pairs of tables (we have tibbles here,
but this would equally work with dataframes). The first member of the
pair contains protein UniProt1111 UniProt is the protein information database. Its mission is to provide the scientific community with a comprehensive, high-quality and freely accessible resource of protein sequence and functional information. unique
accession number (uniprot variable), the most likely sub-cellular
localisation of these respective proteins (organelle variable) as
well as the proteins identifier (entry).

jdf1

## # A tibble: 25 × 3
##    uniprot  organelle                             entry      
##    <chr>    <chr>                                 <chr>      
##  1 P26039   Actin cytoskeleton                    TLN1_MOUSE 
##  2 Q99PL5   Endoplasmic reticulum/Golgi apparatus RRBP1_MOUSE
##  3 Q6PB66   Mitochondrion                         LPPRC_MOUSE
##  4 P11276   Extracellular matrix                  FINC_MOUSE 
##  5 Q6PR54   Nucleus - Chromatin                   RIF1_MOUSE 
##  6 Q05793   Extracellular matrix                  PGBM_MOUSE 
##  7 P19096   Cytosol                               FAS_MOUSE  
##  8 Q9JKF1   Plasma membrane                       IQGA1_MOUSE
##  9 Q9QZQ1-2 Plasma membrane                       AFAD_MOUSE 
## 10 Q6NS46   Nucleus - Non-chromatin               RRP5_MOUSE 
## # ℹ 15 more rows

The second table contains the name of the gene that codes for the
protein (gene_name variable), a description of the gene
(description variable), the uniprot accession number (this is the
common variable that can be used to join tables) and the species the
protein information comes from (organism variable).

jdf2

## # A tibble: 25 × 4
##    gene_name description                                      uniprot organism
##    <chr>     <chr>                                            <chr>   <chr>   
##  1 Iqgap1    Ras GTPase-activating-like protein IQGAP1        Q9JKF1  Mmus    
##  2 Hspa5     78 kDa glucose-regulated protein                 P20029  Mmus    
##  3 Pdcd11    Protein RRP5 homolog                             Q6NS46  Mmus    
##  4 Tfrc      Transferrin receptor protein 1                   Q62351  Mmus    
##  5 Hspd1     60 kDa heat shock protein, mitochondrial         P63038  Mmus    
##  6 Tln1      Talin-1                                          P26039  Mmus    
##  7 Smc1a     Structural maintenance of chromosomes protein 1A Q9CU62  Mmus    
##  8 Lamc1     Laminin subunit gamma-1                          P02468  Mmus    
##  9 Hsp90b1   Endoplasmin                                      P08113  Mmus    
## 10 Mia3      Melanoma inhibitory activity protein 3           Q8BI84  Mmus    
## # ℹ 15 more rows

We now want to join these two tables into a single one containing all
variables. We are going to use dplyr’s full_join function to do
so, that finds the common variable (in this case uniprot) to match
observations from the first and second table.

library("dplyr")
full_join(jdf1, jdf2)

## Joining with `by = join_by(uniprot)`

## # A tibble: 25 × 6
##    uniprot  organelle                       entry gene_name description organism
##    <chr>    <chr>                           <chr> <chr>     <chr>       <chr>   
##  1 P26039   Actin cytoskeleton              TLN1… Tln1      Talin-1     Mmus    
##  2 Q99PL5   Endoplasmic reticulum/Golgi ap… RRBP… Rrbp1     Ribosome-b… Mmus    
##  3 Q6PB66   Mitochondrion                   LPPR… Lrpprc    Leucine-ri… Mmus    
##  4 P11276   Extracellular matrix            FINC… Fn1       Fibronectin Mmus    
##  5 Q6PR54   Nucleus - Chromatin             RIF1… Rif1      Telomere-a… Mmus    
##  6 Q05793   Extracellular matrix            PGBM… Hspg2     Basement m… Mmus    
##  7 P19096   Cytosol                         FAS_… Fasn      Fatty acid… Mmus    
##  8 Q9JKF1   Plasma membrane                 IQGA… Iqgap1    Ras GTPase… Mmus    
##  9 Q9QZQ1-2 Plasma membrane                 AFAD… Mllt4     Isoform 1 … Mmus    
## 10 Q6NS46   Nucleus - Non-chromatin         RRP5… Pdcd11    Protein RR… Mmus    
## # ℹ 15 more rows
…
In case none of the variable names match, those to be used can be set
manually using the by argument, as shown below with the jdf1 (as
above) and jdf3 tables, where the UniProt accession number is
encoded using a different capitalisation.

names(jdf3)

## [1] "gene_name"   "description" "UniProt"     "organism"

full_join(jdf1, jdf3, by = c("uniprot" = "UniProt"))

## # A tibble: 25 × 6
##    uniprot  organelle                       entry gene_name description organism
##    <chr>    <chr>                           <chr> <chr>     <chr>       <chr>   
##  1 P26039   Actin cytoskeleton              TLN1… Tln1      Talin-1     Mmus    
##  2 Q99PL5   Endoplasmic reticulum/Golgi ap… RRBP… Rrbp1     Ribosome-b… Mmus    
##  3 Q6PB66   Mitochondrion                   LPPR… Lrpprc    Leucine-ri… Mmus    
##  4 P11276   Extracellular matrix            FINC… Fn1       Fibronectin Mmus    
##  5 Q6PR54   Nucleus - Chromatin             RIF1… Rif1      Telomere-a… Mmus    
##  6 Q05793   Extracellular matrix            PGBM… Hspg2     Basement m… Mmus    
##  7 P19096   Cytosol                         FAS_… Fasn      Fatty acid… Mmus    
##  8 Q9JKF1   Plasma membrane                 IQGA… Iqgap1    Ras GTPase… Mmus    
##  9 Q9QZQ1-2 Plasma membrane                 AFAD… Mllt4     Isoform 1 … Mmus    
## 10 Q6NS46   Nucleus - Non-chromatin         RRP5… Pdcd11    Protein RR… Mmus    
## # ℹ 15 more rows
…
